traffic_lights/traffic/simulation/qsim/traffic.msim.vcd
$comment
	File created using the following command:
		vcd file traffic.msim.vcd -direction
$end
$date
	Sun Nov 21 12:42:27 2021
$end
$version
	ModelSim Version 10.1d
$end
$timescale
	1ps
$end
$scope module traffic_vlg_vec_tst $end
$var reg 1 ! CLK $end
$var reg 1 " EN $end
$var reg 1 # RST $end
$var wire 1 $ DX1 [3] $end
$var wire 1 % DX1 [2] $end
$var wire 1 & DX1 [1] $end
$var wire 1 ' DX1 [0] $end
$var wire 1 ( DX2 [3] $end
$var wire 1 ) DX2 [2] $end
$var wire 1 * DX2 [1] $end
$var wire 1 + DX2 [0] $end
$var wire 1 , LIGHT [5] $end
$var wire 1 - LIGHT [4] $end
$var wire 1 . LIGHT [3] $end
$var wire 1 / LIGHT [2] $end
$var wire 1 0 LIGHT [1] $end
$var wire 1 1 LIGHT [0] $end
$var wire 1 2 LIGHTA [5] $end
$var wire 1 3 LIGHTA [4] $end
$var wire 1 4 LIGHTA [3] $end
$var wire 1 5 LIGHTA [2] $end
$var wire 1 6 LIGHTA [1] $end
$var wire 1 7 LIGHTA [0] $end
$var wire 1 8 NB1 [3] $end
$var wire 1 9 NB1 [2] $end
$var wire 1 : NB1 [1] $end
$var wire 1 ; NB1 [0] $end
$var wire 1 < NB2 [3] $end
$var wire 1 = NB2 [2] $end
$var wire 1 > NB2 [1] $end
$var wire 1 ? NB2 [0] $end
$var wire 1 @ sampler $end
$scope module i1 $end
$var wire 1 A gnd $end
$var wire 1 B vcc $end
$var wire 1 C unknown $end
$var tri1 1 D devclrn $end
$var tri1 1 E devpor $end
$var tri1 1 F devoe $end
$var wire 1 G CLK~input_o $end
$var wire 1 H ~QUARTUS_CREATED_GND~I_combout $end
$var wire 1 I CLK~inputCLKENA0_outclk $end
$var wire 1 J inst2|Equal4~1_combout $end
$var wire 1 K inst1|Mux1~1_combout $end
$var wire 1 L inst2|DXT~3_combout $end
$var wire 1 M inst|COUNT[0]~1_combout $end
$var wire 1 N RST~input_o $end
$var wire 1 O EN~input_o $end
$var wire 1 P inst|process_0~0_combout $end
$var wire 1 Q inst|Add0~1_combout $end
$var wire 1 R inst|Add0~0_combout $end
$var wire 1 S inst|COUNT[1]~0_combout $end
$var wire 1 T inst2|Equal1~0_combout $end
$var wire 1 U inst|S[0]~2_combout $end
$var wire 1 V inst|S[0]~DUPLICATE_q $end
$var wire 1 W inst1|Mux3~0_combout $end
$var wire 1 X inst1|Mux1~0_combout $end
$var wire 1 Y inst2|NBT[6]~5_combout $end
$var wire 1 Z inst2|NBT[4]~8_combout $end
$var wire 1 [ inst2|NBT[1]~DUPLICATE_q $end
$var wire 1 \ inst2|NBT~1_combout $end
$var wire 1 ] inst2|Equal5~0_combout $end
$var wire 1 ^ inst2|NBT[3]~0_combout $end
$var wire 1 _ inst2|Equal5~1_combout $end
$var wire 1 ` inst2|NBT[1]~2_combout $end
$var wire 1 a inst2|NBT[1]~3_combout $end
$var wire 1 b inst2|NBT[5]~7_combout $end
$var wire 1 c inst2|Equal4~0_combout $end
$var wire 1 d inst2|NBT~4_combout $end
$var wire 1 e inst2|NBT[0]~DUPLICATE_q $end
$var wire 1 f inst|S[1]~0_combout $end
$var wire 1 g inst|S[1]~1_combout $end
$var wire 1 h inst|S[1]~DUPLICATE_q $end
$var wire 1 i inst1|Mux1~2_combout $end
$var wire 1 j inst2|DXT[6]~4_combout $end
$var wire 1 k inst2|DXT[4]~7_combout $end
$var wire 1 l inst2|DXT[5]~6_combout $end
$var wire 1 m inst2|DXT[5]~DUPLICATE_q $end
$var wire 1 n inst2|DXT[1]~DUPLICATE_q $end
$var wire 1 o inst2|DXT~1_combout $end
$var wire 1 p inst2|Equal2~0_combout $end
$var wire 1 q inst2|Equal3~0_combout $end
$var wire 1 r inst2|DXT[1]~9_combout $end
$var wire 1 s inst2|DXT[1]~2_combout $end
$var wire 1 t inst2|DXT[3]~8_combout $end
$var wire 1 u inst2|DXT[3]~0_combout $end
$var wire 1 v inst2|DXT[3]~DUPLICATE_q $end
$var wire 1 w inst2|Equal2~1_combout $end
$var wire 1 x inst2|DXT[6]~5_combout $end
$var wire 1 y inst2|DXT[6]~DUPLICATE_q $end
$var wire 1 z inst2|NBT[6]~6_combout $end
$var wire 1 { inst2|NBT [7] $end
$var wire 1 | inst2|NBT [6] $end
$var wire 1 } inst2|NBT [5] $end
$var wire 1 ~ inst2|NBT [4] $end
$var wire 1 !! inst2|NBT [3] $end
$var wire 1 "! inst2|NBT [2] $end
$var wire 1 #! inst2|NBT [1] $end
$var wire 1 $! inst2|NBT [0] $end
$var wire 1 %! inst2|DXT [7] $end
$var wire 1 &! inst2|DXT [6] $end
$var wire 1 '! inst2|DXT [5] $end
$var wire 1 (! inst2|DXT [4] $end
$var wire 1 )! inst2|DXT [3] $end
$var wire 1 *! inst2|DXT [2] $end
$var wire 1 +! inst2|DXT [1] $end
$var wire 1 ,! inst2|DXT [0] $end
$var wire 1 -! inst|S [1] $end
$var wire 1 .! inst|S [0] $end
$var wire 1 /! inst|COUNT [3] $end
$var wire 1 0! inst|COUNT [2] $end
$var wire 1 1! inst|COUNT [1] $end
$var wire 1 2! inst|COUNT [0] $end
$upscope $end
$upscope $end
$enddefinitions $end
#0
$dumpvars
0!
1"
1#
1'
0&
0%
0$
0+
0*
0)
0(
01
00
1/
0.
1-
0,
07
06
15
04
13
02
1;
0:
09
08
0?
0>
0=
0<
x@
0A
1B
xC
1D
1E
1F
0G
0H
0I
0J
0K
1L
1M
1N
1O
1P
0Q
0R
0S
1T
1U
0V
1W
1X
0Y
0Z
0[
0\
0]
0^
0_
0`
0a
0b
1c
1d
0e
1f
1g
0h
0i
0j
0k
0l
0m
0n
0o
1p
0q
0r
0s
0t
0u
0v
0w
0x
0y
0z
0$!
0#!
0"!
0!!
0~
0}
0|
z{
0,!
0+!
0*!
0)!
0(!
0'!
0&!
z%!
0.!
0-!
02!
01!
00!
0/!
$end
#5000
1!
1G
1I
0@
12!
0M
1S
0T
0U
0g
#10000
0!
0G
0I
1@
#15000
1!
1G
1I
0@
11!
02!
1M
#20000
0!
0G
0I
1@
#25000
1!
1G
1I
0@
12!
0M
1Q
0S
#30000
0!
0G
0I
1@
#35000
1!
1G
1I
0@
01!
10!
02!
1M
#40000
0!
0G
0I
1@
#45000
1!
1G
1I
0@
12!
0M
1S
#50000
0!
0G
0I
1@
#55000
1!
1G
1I
0@
11!
02!
1M
#60000
0!
0G
0I
1@
#65000
1!
1G
1I
0@
12!
0M
0Q
1R
0S
#70000
0!
0G
0I
1@
#75000
1!
1G
1I
0@
01!
1/!
00!
02!
1M
#80000
0!
0G
0I
1@
#85000
1!
1G
1I
0@
12!
0M
1S
#90000
0!
0G
0I
1@
#95000
1!
1G
1I
0@
11!
02!
1M
#100000
0!
0G
0I
1@
#105000
1!
1G
1I
0@
12!
0M
1Q
0S
#110000
0!
0G
0I
1@
#115000
1!
1G
1I
0@
01!
10!
02!
1M
#120000
0!
0G
0I
1@
#125000
1!
1G
1I
0@
12!
0M
1S
#130000
0!
0G
0I
1@
#135000
1!
1G
1I
0@
11!
02!
1M
#140000
0!
0G
0I
1@
#145000
1!
1G
1I
0@
12!
0M
0Q
0R
0S
#150000
0!
0G
0I
1@
#155000
1!
1G
1I
0@
01!
0/!
00!
02!
1T
1M
1U
1g
#160000
0!
0G
0I
1@
1.!
1-!
1,!
1V
1$!
1e
1h
0f
1j
1q
1r
1w
0W
1J
1]
1_
1`
0'
0;
12
1,
0/
05
0X
1l
1x
1s
0`
0d
1^
1a
1Y
11
17
03
0-
0a
1Z
1z
#165000
1!
1G
1I
0@
12!
0M
1S
0T
0Y
0^
0j
0s
0Z
0z
0l
0x
#170000
0!
0G
0I
1@
#175000
1!
1G
1I
0@
11!
02!
1M
#180000
0!
0G
0I
1@
#185000
1!
1G
1I
0@
12!
0M
1Q
0S
#190000
0!
0G
0I
1@
#195000
1!
1G
1I
0@
01!
10!
02!
1M
#200000
0!
0G
0I
1@
#205000
1!
1G
1I
0@
12!
0M
1S
#210000
0!
0G
0I
1@
#215000
1!
1G
1I
0@
11!
02!
1M
#220000
0!
0G
0I
1@
#225000
1!
1G
1I
0@
12!
0M
0Q
1R
0S
#230000
0!
0G
0I
1@
#235000
1!
1G
1I
0@
01!
1/!
00!
02!
1M
#240000
0!
0G
0I
1@
#245000
1!
1G
1I
0@
12!
0M
1S
#250000
0!
0G
0I
1@
#255000
1!
1G
1I
0@
11!
02!
1M
#260000
0!
0G
0I
1@
#265000
1!
1G
1I
0@
12!
0M
1Q
0S
#270000
0!
0G
0I
1@
#275000
1!
1G
1I
0@
01!
10!
02!
1M
#280000
0!
0G
0I
1@
#285000
1!
1G
1I
0@
12!
0M
1S
#290000
0!
0G
0I
1@
#295000
1!
1G
1I
0@
11!
02!
1M
#300000
0!
0G
0I
1@
#305000
1!
1G
1I
0@
12!
0M
0Q
0R
0S
#310000
0!
0G
0I
1@
#315000
1!
1G
1I
0@
01!
0/!
00!
02!
1T
1M
1Y
1^
1j
1s
1Z
1z
1l
1x
#320000
0!
0G
0I
1@
0$!
0e
1m
1n
1&!
1~
1!!
1'!
1+!
1y
1|
1d
0J
0U
0]
0_
1f
0p
0q
0Z
0c
0^
1;
1?
18
1*
1&
1)
1=
1^
0Y
0L
1U
0f
0j
0r
1t
0w
1Z
0s
#325000
1!
1G
1I
0@
12!
0M
1S
0T
1s
#330000
0!
0G
0I
1@
#335000
1!
1G
1I
0@
11!
02!
1M
#340000
0!
0G
0I
1@
#345000
1!
1G
1I
0@
12!
0M
1Q
0S
#350000
0!
0G
0I
1@
#355000
1!
1G
1I
0@
01!
10!
02!
1M
#360000
0!
0G
0I
1@
#365000
1!
1G
1I
0@
12!
0M
1S
#370000
0!
0G
0I
1@
#375000
1!
1G
1I
0@
11!
02!
1M
#380000
0!
0G
0I
1@
#385000
1!
1G
1I
0@
12!
0M
0Q
1R
0S
#390000
0!
0G
0I
1@
#395000
1!
1G
1I
0@
01!
1/!
00!
02!
1M
#400000
0!
0G
0I
1@
#405000
1!
1G
1I
0@
12!
0M
1S
#410000
0!
0G
0I
1@
#415000
1!
1G
1I
0@
11!
02!
1M
#420000
0!
0G
0I
1@
#425000
1!
1G
1I
0@
12!
0M
1Q
0S
#430000
0!
0G
0I
1@
#435000
1!
1G
1I
0@
01!
10!
02!
1M
#440000
0!
0G
0I
1@
#445000
1!
1G
1I
0@
12!
0M
1S
#450000
0!
0G
0I
1@
#455000
1!
1G
1I
0@
11!
02!
1M
#460000
0!
0G
0I
1@
#465000
1!
1G
1I
0@
12!
0M
0Q
0R
0S
#470000
0!
0G
0I
1@
#475000
1!
1G
1I
0@
01!
0/!
00!
02!
1T
1M
0s
#480000
0!
0G
0I
1@
0,!
1$!
1e
0n
0+!
1L
0d
1\
1]
1`
1'
0;
0&
0^
1a
#485000
1!
1G
1I
0@
12!
0M
1S
0T
1^
0a
#490000
0!
0G
0I
1@
#495000
1!
1G
1I
0@
11!
02!
1M
#500000
0!
0G
0I
1@
#505000
1!
1G
1I
0@
12!
0M
1Q
0S
#510000
0!
0G
0I
1@
#515000
1!
1G
1I
0@
01!
10!
02!
1M
#520000
0!
0G
0I
1@
#525000
1!
1G
1I
0@
12!
0M
1S
#530000
0!
0G
0I
1@
#535000
1!
1G
1I
0@
11!
02!
1M
#540000
0!
0G
0I
1@
#545000
1!
1G
1I
0@
12!
0M
0Q
1R
0S
#550000
0!
0G
0I
1@
#555000
1!
1G
1I
0@
01!
1/!
00!
02!
1M
#560000
0!
0G
0I
1@
#565000
1!
1G
1I
0@
12!
0M
1S
#570000
0!
0G
0I
1@
#575000
1!
1G
1I
0@
11!
02!
1M
#580000
0!
0G
0I
1@
#585000
1!
1G
1I
0@
12!
0M
1Q
0S
#590000
0!
0G
0I
1@
#595000
1!
1G
1I
0@
01!
10!
02!
1M
#600000
0!
0G
0I
1@
#605000
1!
1G
1I
0@
12!
0M
1S
#610000
0!
0G
0I
1@
#615000
1!
1G
1I
0@
11!
02!
1M
#620000
0!
0G
0I
1@
#625000
1!
1G
1I
0@
12!
0M
0Q
0R
0S
#630000
0!
0G
0I
1@
#635000
1!
1G
1I
0@
01!
0/!
00!
02!
1T
1M
0^
1a
#640000
0!
0G
0I
1@
1,!
0$!
1#!
0e
1[
1"!
0!!
0L
1q
1r
1u
1d
0]
1^
0'
1;
1:
19
08
1j
0r
1s
0^
1k
0l
0s
#645000
1!
1G
1I
0@
12!
0M
1S
0T
0j
0u
0k
1l
#650000
0!
0G
0I
1@
#655000
1!
1G
1I
0@
11!
02!
1M
#660000
0!
0G
0I
1@
#665000
1!
1G
1I
0@
12!
0M
1Q
0S
#670000
0!
0G
0I
1@
#675000
1!
1G
1I
0@
01!
10!
02!
1M
#680000
0!
0G
0I
1@
#685000
1!
1G
1I
0@
12!
0M
1S
#690000
0!
0G
0I
1@
#695000
1!
1G
1I
0@
11!
02!
1M
#700000
0!
0G
0I
1@
#705000
1!
1G
1I
0@
12!
0M
0Q
1R
0S
#710000
0!
0G
0I
1@
#715000
1!
1G
1I
0@
01!
1/!
00!
02!
1M
#720000
0!
0G
0I
1@
#725000
1!
1G
1I
0@
12!
0M
1S
#730000
0!
0G
0I
1@
#735000
1!
1G
1I
0@
11!
02!
1M
#740000
0!
0G
0I
1@
#745000
1!
1G
1I
0@
12!
0M
1Q
0S
#750000
0!
0G
0I
1@
#755000
1!
1G
1I
0@
01!
10!
02!
1M
#760000
0!
0G
0I
1@
#765000
1!
1G
1I
0@
12!
0M
1S
#770000
0!
0G
0I
1@
#775000
1!
1G
1I
0@
11!
02!
1M
#780000
0!
0G
0I
1@
#785000
1!
1G
1I
0@
12!
0M
0Q
0R
0S
#790000
0!
0G
0I
1@
#795000
1!
1G
1I
0@
01!
0/!
00!
02!
1T
1M
1j
1u
1k
0l
#800000
0!
0G
0I
1@
0,!
1$!
1e
0m
1)!
1(!
0'!
1v
1L
0q
0d
0`
0t
0k
1'
0;
1+
0*
1$
0j
0a
1k
#805000
1!
1G
1I
0@
12!
0M
1S
0T
1a
#810000
0!
0G
0I
1@
#815000
1!
1G
1I
0@
11!
02!
1M
#820000
0!
0G
0I
1@
#825000
1!
1G
1I
0@
12!
0M
1Q
0S
#830000
0!
0G
0I
1@
#835000
1!
1G
1I
0@
01!
10!
02!
1M
#840000
0!
0G
0I
1@
#845000
1!
1G
1I
0@
12!
0M
1S
#850000
0!
0G
0I
1@
#855000
1!
1G
1I
0@
11!
02!
1M
#860000
0!
0G
0I
1@
#865000
1!
1G
1I
0@
12!
0M
0Q
1R
0S
#870000
0!
0G
0I
1@
#875000
1!
1G
1I
0@
01!
1/!
00!
02!
1M
#880000
0!
0G
0I
1@
#885000
1!
1G
1I
0@
12!
0M
1S
#890000
0!
0G
0I
1@
#895000
1!
1G
1I
0@
11!
02!
1M
#900000
0!
0G
0I
1@
#905000
1!
1G
1I
0@
12!
0M
1Q
0S
#910000
0!
0G
0I
1@
#915000
1!
1G
1I
0@
01!
10!
02!
1M
#920000
0!
0G
0I
1@
#925000
1!
1G
1I
0@
12!
0M
1S
#930000
0!
0G
0I
1@
#935000
1!
1G
1I
0@
11!
02!
1M
#940000
0!
0G
0I
1@
#945000
1!
1G
1I
0@
12!
0M
0Q
0R
0S
#950000
0!
0G
0I
1@
#955000
1!
1G
1I
0@
01!
0/!
00!
02!
1T
1M
0a
#960000
0!
0G
0I
1@
1,!
0$!
0#!
0e
0[
0L
1o
1r
0u
1d
0'
1;
0:
1s
#965000
1!
1G
1I
0@
12!
0M
1S
0T
0s
1u
#970000
0!
0G
0I
1@
#975000
1!
1G
1I
0@
11!
02!
1M
#980000
0!
0G
0I
1@
#985000
1!
1G
1I
0@
12!
0M
1Q
0S
#990000
0!
0G
0I
1@
#995000
1!
1G
1I
0@
01!
10!
02!
1M
#1000000
0!
0G
0I
1@
#1005000
1!
1G
1I
0@
12!
0M
1S
#1010000
0!
0G
0I
1@
#1015000
1!
1G
1I
0@
11!
02!
1M
#1020000
0!
0G
0I
1@
#1025000
1!
1G
1I
0@
12!
0M
0Q
1R
0S
#1030000
0!
0G
0I
1@
#1035000
1!
1G
1I
0@
01!
1/!
00!
02!
1M
#1040000
0!
0G
0I
1@
#1045000
1!
1G
1I
0@
12!
0M
1S
#1050000
0!
0G
0I
1@
#1055000
1!
1G
1I
0@
11!
02!
1M
#1060000
0!
0G
0I
1@
#1065000
1!
1G
1I
0@
12!
0M
1Q
0S
#1070000
0!
0G
0I
1@
#1075000
1!
1G
1I
0@
01!
10!
02!
1M
#1080000
0!
0G
0I
1@
#1085000
1!
1G
1I
0@
12!
0M
1S
#1090000
0!
0G
0I
1@
#1095000
1!
1G
1I
0@
11!
02!
1M
#1100000
0!
0G
0I
1@
#1105000
1!
1G
1I
0@
12!
0M
0Q
0R
0S
#1110000
0!
0G
0I
1@
#1115000
1!
1G
1I
0@
01!
0/!
00!
02!
1T
1M
1s
0u
#1120000
0!
0G
0I
1@
0,!
1$!
1e
1n
0)!
1*!
1+!
0v
1L
0d
0\
1`
1t
1'
0;
1%
1&
0$
1a
#1125000
1!
1G
1I
0@
12!
0M
1S
0T
0a
#1130000
0!
0G
0I
1@
#1135000
1!
1G
1I
0@
11!
02!
1M
#1140000
0!
0G
0I
1@
#1145000
1!
1G
1I
0@
12!
0M
1Q
0S
#1150000
0!
0G
0I
1@
#1155000
1!
1G
1I
0@
01!
10!
02!
1M
#1160000
0!
0G
0I
1@
#1165000
1!
1G
1I
0@
12!
0M
1S
#1170000
0!
0G
0I
1@
#1175000
1!
1G
1I
0@
11!
02!
1M
#1180000
0!
0G
0I
1@
#1185000
1!
1G
1I
0@
12!
0M
0Q
1R
0S
#1190000
0!
0G
0I
1@
#1195000
1!
1G
1I
0@
01!
1/!
00!
02!
1M
#1200000
0!
0G
0I
1@
#1205000
1!
1G
1I
0@
12!
0M
1S
#1210000
0!
0G
0I
1@
#1215000
1!
1G
1I
0@
11!
02!
1M
#1220000
0!
0G
0I
1@
#1225000
1!
1G
1I
0@
12!
0M
1Q
0S
#1230000
0!
0G
0I
1@
#1235000
1!
1G
1I
0@
01!
10!
02!
1M
#1240000
0!
0G
0I
1@
#1245000
1!
1G
1I
0@
12!
0M
1S
#1250000
0!
0G
0I
1@
#1255000
1!
1G
1I
0@
11!
02!
1M
#1260000
0!
0G
0I
1@
#1265000
1!
1G
1I
0@
12!
0M
0Q
0R
0S
#1270000
0!
0G
0I
1@
#1275000
1!
1G
1I
0@
01!
0/!
00!
02!
1T
1M
1a
#1280000
0!
0G
0I
1@
1,!
0$!
1#!
0e
1[
0"!
0L
0r
1d
0'
1;
1:
09
0s
#1285000
1!
1G
1I
0@
12!
0M
1S
0T
1s
#1290000
0!
0G
0I
1@
#1295000
1!
1G
1I
0@
11!
02!
1M
#1300000
0!
0G
0I
1@
#1305000
1!
1G
1I
0@
12!
0M
1Q
0S
#1310000
0!
0G
0I
1@
#1315000
1!
1G
1I
0@
01!
10!
02!
1M
#1320000
0!
0G
0I
1@
#1325000
1!
1G
1I
0@
12!
0M
1S
#1330000
0!
0G
0I
1@
#1335000
1!
1G
1I
0@
11!
02!
1M
#1340000
0!
0G
0I
1@
#1345000
1!
1G
1I
0@
12!
0M
0Q
1R
0S
#1350000
0!
0G
0I
1@
#1355000
1!
1G
1I
0@
01!
1/!
00!
02!
1M
#1360000
0!
0G
0I
1@
#1365000
1!
1G
1I
0@
12!
0M
1S
#1370000
0!
0G
0I
1@
#1375000
1!
1G
1I
0@
11!
02!
1M
#1380000
0!
0G
0I
1@
#1385000
1!
1G
1I
0@
12!
0M
1Q
0S
#1390000
0!
0G
0I
1@
#1395000
1!
1G
1I
0@
01!
10!
02!
1M
#1400000
0!
0G
0I
1@
#1405000
1!
1G
1I
0@
12!
0M
1S
#1410000
0!
0G
0I
1@
#1415000
1!
1G
1I
0@
11!
02!
1M
#1420000
0!
0G
0I
1@
#1425000
1!
1G
1I
0@
12!
0M
0Q
0R
0S
#1430000
0!
0G
0I
1@
#1435000
1!
1G
1I
0@
01!
0/!
00!
02!
1T
1M
0s
#1440000
0!
0G
0I
1@
0,!
1$!
1e
0n
0+!
1L
0d
0`
1'
0;
0&
0a
#1445000
1!
1G
1I
0@
12!
0M
1S
0T
1a
#1450000
0!
0G
0I
1@
#1455000
1!
1G
1I
0@
11!
02!
1M
#1460000
0!
0G
0I
1@
#1465000
1!
1G
1I
0@
12!
0M
1Q
0S
#1470000
0!
0G
0I
1@
#1475000
1!
1G
1I
0@
01!
10!
02!
1M
#1480000
0!
0G
0I
1@
#1485000
1!
1G
1I
0@
12!
0M
1S
#1490000
0!
0G
0I
1@
#1495000
1!
1G
1I
0@
11!
02!
1M
#1500000
0!
0G
0I
1@
#1505000
1!
1G
1I
0@
12!
0M
0Q
1R
0S
#1510000
0!
0G
0I
1@
#1515000
1!
1G
1I
0@
01!
1/!
00!
02!
1M
#1520000
0!
0G
0I
1@
#1525000
1!
1G
1I
0@
12!
0M
1S
#1530000
0!
0G
0I
1@
#1535000
1!
1G
1I
0@
11!
02!
1M
#1540000
0!
0G
0I
1@
#1545000
1!
1G
1I
0@
12!
0M
1Q
0S
#1550000
0!
0G
0I
1@
#1555000
1!
1G
1I
0@
01!
10!
02!
1M
#1560000
0!
0G
0I
1@
#1565000
1!
1G
1I
0@
12!
0M
1S
#1570000
0!
0G
0I
1@
#1575000
1!
1G
1I
0@
11!
02!
1M
#1580000
0!
0G
0I
1@
#1585000
1!
1G
1I
0@
12!
0M
0Q
0R
0S
#1590000
0!
0G
0I
1@
#1595000
1!
1G
1I
0@
01!
0/!
00!
02!
1T
1M
0a
#1600000
0!
0G
0I
1@
1,!
0$!
0#!
0e
0[
0L
0o
1r
1d
0'
1;
0:
1s
#1605000
1!
1G
1I
0@
12!
0M
1S
0T
0s
#1610000
0!
0G
0I
1@
#1615000
1!
1G
1I
0@
11!
02!
1M
#1620000
0!
0G
0I
1@
#1625000
1!
1G
1I
0@
12!
0M
1Q
0S
#1630000
0!
0G
0I
1@
#1635000
1!
1G
1I
0@
01!
10!
02!
1M
#1640000
0!
0G
0I
1@
#1645000
1!
1G
1I
0@
12!
0M
1S
#1650000
0!
0G
0I
1@
#1655000
1!
1G
1I
0@
11!
02!
1M
#1660000
0!
0G
0I
1@
#1665000
1!
1G
1I
0@
12!
0M
0Q
1R
0S
#1670000
0!
0G
0I
1@
#1675000
1!
1G
1I
0@
01!
1/!
00!
02!
1M
#1680000
0!
0G
0I
1@
#1685000
1!
1G
1I
0@
12!
0M
1S
#1690000
0!
0G
0I
1@
#1695000
1!
1G
1I
0@
11!
02!
1M
#1700000
0!
0G
0I
1@
#1705000
1!
1G
1I
0@
12!
0M
1Q
0S
#1710000
0!
0G
0I
1@
#1715000
1!
1G
1I
0@
01!
10!
02!
1M
#1720000
0!
0G
0I
1@
#1725000
1!
1G
1I
0@
12!
0M
1S
#1730000
0!
0G
0I
1@
#1735000
1!
1G
1I
0@
11!
02!
1M
#1740000
0!
0G
0I
1@
#1745000
1!
1G
1I
0@
12!
0M
0Q
0R
0S
#1750000
0!
0G
0I
1@
#1755000
1!
1G
1I
0@
01!
0/!
00!
02!
1T
1M
1s
#1760000
0!
0G
0I
1@
0,!
1$!
1e
1n
0*!
1+!
1L
0d
1]
1_
1`
1'
0;
0%
1&
1^
1Y
0`
1a
0Z
0a
#1765000
1!
1G
1I
0@
12!
0M
1S
0T
0Y
0^
1Z
#1770000
0!
0G
0I
1@
#1775000
1!
1G
1I
0@
11!
02!
1M
#1780000
0!
0G
0I
1@
#1785000
1!
1G
1I
0@
12!
0M
1Q
0S
#1790000
0!
0G
0I
1@
#1795000
1!
1G
1I
0@
01!
10!
02!
1M
#1800000
0!
0G
0I
1@
#1805000
1!
1G
1I
0@
12!
0M
1S
#1810000
0!
0G
0I
1@
#1815000
1!
1G
1I
0@
11!
02!
1M
#1820000
0!
0G
0I
1@
#1825000
1!
1G
1I
0@
12!
0M
0Q
1R
0S
#1830000
0!
0G
0I
1@
#1835000
1!
1G
1I
0@
01!
1/!
00!
02!
1M
#1840000
0!
0G
0I
1@
#1845000
1!
1G
1I
0@
12!
0M
1S
#1850000
0!
0G
0I
1@
#1855000
1!
1G
1I
0@
11!
02!
1M
#1860000
0!
0G
0I
1@
#1865000
1!
1G
1I
0@
12!
0M
1Q
0S
#1870000
0!
0G
0I
1@
#1875000
1!
1G
1I
0@
01!
10!
02!
1M
#1880000
0!
0G
0I
1@
#1885000
1!
1G
1I
0@
12!
0M
1S
#1890000
0!
0G
0I
1@
#1895000
1!
1G
1I
0@
11!
02!
1M
#1900000
0!
0G
0I
1@
#1905000
1!
1G
1I
0@
12!
0M
0Q
0R
0S
#1910000
0!
0G
0I
1@
#1915000
1!
1G
1I
0@
01!
0/!
00!
02!
1T
1M
1Y
1^
0Z
#1920000
0!
0G
0I
1@
1,!
0$!
0e
0~
1!!
0L
0r
1d
0]
0_
1Z
1b
0z
0^
0'
1;
0?
18
0s
1^
0Y
0Z
0b
1z
#1925000
1!
1G
1I
0@
12!
0M
1S
0T
1s
#1930000
0!
0G
0I
1@
#1935000
1!
1G
1I
0@
11!
02!
1M
#1940000
0!
0G
0I
1@
#1945000
1!
1G
1I
0@
12!
0M
1Q
0S
#1950000
0!
0G
0I
1@
#1955000
1!
1G
1I
0@
01!
10!
02!
1M
#1960000
0!
0G
0I
1@
#1965000
1!
1G
1I
0@
12!
0M
1S
#1970000
0!
0G
0I
1@
#1975000
1!
1G
1I
0@
11!
02!
1M
#1980000
0!
0G
0I
1@
#1985000
1!
1G
1I
0@
12!
0M
0Q
1R
0S
#1990000
0!
0G
0I
1@
#1995000
1!
1G
1I
0@
01!
1/!
00!
02!
1M
#2000000
0!
0G
0I
1@
#2005000
1!
1G
1I
0@
12!
0M
1S
#2010000
0!
0G
0I
1@
#2015000
1!
1G
1I
0@
11!
02!
1M
#2020000
0!
0G
0I
1@
#2025000
1!
1G
1I
0@
12!
0M
1Q
0S
#2030000
0!
0G
0I
1@
#2035000
1!
1G
1I
0@
01!
10!
02!
1M
#2040000
0!
0G
0I
1@
#2045000
1!
1G
1I
0@
12!
0M
1S
#2050000
0!
0G
0I
1@
#2055000
1!
1G
1I
0@
11!
02!
1M
#2060000
0!
0G
0I
1@
#2065000
1!
1G
1I
0@
12!
0M
0Q
0R
0S
#2070000
0!
0G
0I
1@
#2075000
1!
1G
1I
0@
01!
0/!
00!
02!
1T
1M
0s
#2080000
0!
0G
0I
1@
0,!
1$!
1e
0n
0+!
1L
0d
1\
1]
1`
1'
0;
0&
0^
1a
#2085000
1!
1G
1I
0@
12!
0M
1S
0T
1^
0a
#2090000
0!
0G
0I
1@
#2095000
1!
1G
1I
0@
11!
02!
1M
#2100000
0!
0G
0I
1@
#2105000
1!
1G
1I
0@
12!
0M
1Q
0S
#2110000
0!
0G
0I
1@
#2115000
1!
1G
1I
0@
01!
10!
02!
1M
#2120000
0!
0G
0I
1@
#2125000
1!
1G
1I
0@
12!
0M
1S
#2130000
0!
0G
0I
1@
#2135000
1!
1G
1I
0@
11!
02!
1M
#2140000
0!
0G
0I
1@
#2145000
1!
1G
1I
0@
12!
0M
0Q
1R
0S
#2150000
0!
0G
0I
1@
#2155000
1!
1G
1I
0@
01!
1/!
00!
02!
1M
#2160000
0!
0G
0I
1@
#2165000
1!
1G
1I
0@
12!
0M
1S
#2170000
0!
0G
0I
1@
#2175000
1!
1G
1I
0@
11!
02!
1M
#2180000
0!
0G
0I
1@
#2185000
1!
1G
1I
0@
12!
0M
1Q
0S
#2190000
0!
0G
0I
1@
#2195000
1!
1G
1I
0@
01!
10!
02!
1M
#2200000
0!
0G
0I
1@
#2205000
1!
1G
1I
0@
12!
0M
1S
#2210000
0!
0G
0I
1@
#2215000
1!
1G
1I
0@
11!
02!
1M
#2220000
0!
0G
0I
1@
#2225000
1!
1G
1I
0@
12!
0M
0Q
0R
0S
#2230000
0!
0G
0I
1@
#2235000
1!
1G
1I
0@
01!
0/!
00!
02!
1T
1M
0^
1a
#2240000
0!
0G
0I
1@
1,!
0$!
1#!
0e
1[
1"!
0!!
0L
1q
1r
1u
1d
0]
1^
0'
1;
1:
19
08
1j
0r
1s
0^
0k
0s
#2245000
1!
1G
1I
0@
12!
0M
1S
0T
0j
0u
1k
#2250000
0!
0G
0I
1@
#2255000
1!
1G
1I
0@
11!
02!
1M
#2260000
0!
0G
0I
1@
#2265000
1!
1G
1I
0@
12!
0M
1Q
0S
#2270000
0!
0G
0I
1@
#2275000
1!
1G
1I
0@
01!
10!
02!
1M
#2280000
0!
0G
0I
1@
#2285000
1!
1G
1I
0@
12!
0M
1S
#2290000
0!
0G
0I
1@
#2295000
1!
1G
1I
0@
11!
02!
1M
#2300000
0!
0G
0I
1@
#2305000
1!
1G
1I
0@
12!
0M
0Q
1R
0S
#2310000
0!
0G
0I
1@
#2315000
1!
1G
1I
0@
01!
1/!
00!
02!
1M
#2320000
0!
0G
0I
1@
#2325000
1!
1G
1I
0@
12!
0M
1S
#2330000
0!
0G
0I
1@
#2335000
1!
1G
1I
0@
11!
02!
1M
#2340000
0!
0G
0I
1@
#2345000
1!
1G
1I
0@
12!
0M
1Q
0S
#2350000
0!
0G
0I
1@
#2355000
1!
1G
1I
0@
01!
10!
02!
1M
#2360000
0!
0G
0I
1@
#2365000
1!
1G
1I
0@
12!
0M
1S
#2370000
0!
0G
0I
1@
#2375000
1!
1G
1I
0@
11!
02!
1M
#2380000
0!
0G
0I
1@
#2385000
1!
1G
1I
0@
12!
0M
0Q
0R
0S
#2390000
0!
0G
0I
1@
#2395000
1!
1G
1I
0@
01!
0/!
00!
02!
1T
1M
1j
1u
0k
