traffic_lights/control/simulation/qsim/control.msim.vcd
$comment
	File created using the following command:
		vcd file control.msim.vcd -direction
$end
$date
	Mon Nov 23 17:24:49 2020
$end
$version
	ModelSim Version 10.1d
$end
$timescale
	1ps
$end
$scope module control_vlg_vec_tst $end
$var reg 1 ! CLK $end
$var reg 8 " DX [7:0] $end
$var reg 1 # EN $end
$var reg 8 $ NB [7:0] $end
$var reg 1 % RST $end
$var wire 1 & Q [1] $end
$var wire 1 ' Q [0] $end
$var wire 1 ( sampler $end
$scope module i1 $end
$var wire 1 ) gnd $end
$var wire 1 * vcc $end
$var wire 1 + unknown $end
$var tri1 1 , devclrn $end
$var tri1 1 - devpor $end
$var tri1 1 . devoe $end
$var wire 1 / S[0]~0_combout $end
$var wire 1 0 S[0]~1_combout $end
$var wire 1 1 S[0]~2_combout $end
$var wire 1 2 S[0]~3_combout $end
$var wire 1 3 S[0]~4_combout $end
$var wire 1 4 Add0~1_combout $end
$var wire 1 5 DX[0]~input_o $end
$var wire 1 6 DX[1]~input_o $end
$var wire 1 7 DX[2]~input_o $end
$var wire 1 8 DX[3]~input_o $end
$var wire 1 9 NB[0]~input_o $end
$var wire 1 : NB[1]~input_o $end
$var wire 1 ; NB[2]~input_o $end
$var wire 1 < NB[3]~input_o $end
$var wire 1 = NB[4]~input_o $end
$var wire 1 > NB[5]~input_o $end
$var wire 1 ? NB[6]~input_o $end
$var wire 1 @ NB[7]~input_o $end
$var wire 1 A DX[4]~input_o $end
$var wire 1 B DX[5]~input_o $end
$var wire 1 C DX[6]~input_o $end
$var wire 1 D DX[7]~input_o $end
$var wire 1 E Q[0]~output_o $end
$var wire 1 F Q[1]~output_o $end
$var wire 1 G CLK~input_o $end
$var wire 1 H CLK~inputclkctrl_outclk $end
$var wire 1 I COUNT[0]~0_combout $end
$var wire 1 J RST~input_o $end
$var wire 1 K RST~inputclkctrl_outclk $end
$var wire 1 L EN~input_o $end
$var wire 1 M process_0~0_combout $end
$var wire 1 N Add0~2_combout $end
$var wire 1 O Add0~0_combout $end
$var wire 1 P S[0]~5_combout $end
$var wire 1 Q S[0]~6_combout $end
$var wire 1 R S[1]~7_combout $end
$var wire 1 S S [1] $end
$var wire 1 T S [0] $end
$var wire 1 U COUNT [3] $end
$var wire 1 V COUNT [2] $end
$var wire 1 W COUNT [1] $end
$var wire 1 X COUNT [0] $end
$upscope $end
$upscope $end
$enddefinitions $end
#0
$dumpvars
0!
b1 "
1#
b0 $
1%
1'
1&
x(
0)
1*
x+
1,
1-
1.
1/
00
11
12
13
04
15
06
07
08
09
0:
0;
0<
0=
0>
0?
0@
0A
0B
0C
0D
1E
1F
0G
0H
1I
1J
1K
1L
1M
0N
0O
1P
1Q
1R
0T
0S
0X
0W
0V
0U
$end
#100000
1!
1G
1H
0(
1X
0P
1N
0I
0R
0Q
#200000
0!
0G
0H
1(
#300000
1!
1G
1H
0(
1W
0X
1I
#400000
0!
0G
0H
1(
#500000
1!
1G
1H
0(
1X
0N
0I
14
#600000
0!
0G
0H
1(
#700000
1!
1G
1H
0(
0W
0X
1V
1I
#800000
0!
0G
0H
1(
#900000
1!
1G
1H
0(
1X
1N
0I
#1000000
0!
0G
0H
1(
#1100000
1!
1G
1H
0(
1W
0X
1I
#1200000
0!
0G
0H
1(
#1300000
1!
1G
1H
0(
1X
1O
0N
0I
04
#1400000
0!
0G
0H
1(
#1500000
1!
1G
1H
0(
1U
0W
0X
0V
1I
#1600000
0!
0G
0H
1(
#1700000
1!
1G
1H
0(
1X
1N
0I
#1800000
0!
0G
0H
1(
#1900000
1!
1G
1H
0(
1W
0X
1I
#2000000
0!
0G
0H
1(
#2100000
1!
1G
1H
0(
1X
0N
0I
14
#2200000
0!
0G
0H
1(
#2300000
1!
1G
1H
0(
0W
0X
1V
1I
#2400000
0!
0G
0H
1(
#2500000
1!
1G
1H
0(
1X
1N
0I
#2600000
0!
0G
0H
1(
#2700000
1!
1G
1H
0(
1W
0X
1I
#2800000
0!
0G
0H
1(
#2900000
1!
1G
1H
0(
1X
0O
0N
0I
04
#3000000
0!
0G
0H
1(
#3100000
1!
1G
1H
0(
0U
0W
0X
0V
1P
1I
1R
1Q
#3200000
0!
0G
0H
1(
1T
1S
0Q
0E
0F
0'
0&
#3300000
1!
1G
1H
0(
1X
0P
1N
0I
1Q
#3400000
0!
0G
0H
1(
#3500000
1!
1G
1H
0(
1W
0X
1I
#3600000
0!
0G
0H
1(
#3700000
1!
1G
1H
0(
1X
0N
0I
14
#3800000
0!
0G
0H
1(
#3900000
1!
1G
1H
0(
0W
0X
1V
1I
#4000000
0!
0G
0H
1(
#4100000
1!
1G
1H
0(
1X
1N
0I
#4200000
0!
0G
0H
1(
#4300000
1!
1G
1H
0(
1W
0X
1I
#4400000
0!
0G
0H
1(
#4500000
1!
1G
1H
0(
1X
1O
0N
0I
04
#4600000
0!
0G
0H
1(
#4700000
1!
1G
1H
0(
1U
0W
0X
0V
1I
#4800000
0!
0G
0H
1(
#4900000
1!
1G
1H
0(
1X
1N
0I
#5000000
0!
0G
0H
1(
#5100000
1!
1G
1H
0(
1W
0X
1I
#5200000
0!
0G
0H
1(
#5300000
1!
1G
1H
0(
1X
0N
0I
14
#5400000
0!
0G
0H
1(
#5500000
1!
1G
1H
0(
0W
0X
1V
1I
#5600000
0!
0G
0H
1(
#5700000
1!
1G
1H
0(
1X
1N
0I
#5800000
0!
0G
0H
1(
#5900000
1!
1G
1H
0(
1W
0X
1I
#6000000
0!
0G
0H
1(
#6100000
1!
1G
1H
0(
1X
0O
0N
0I
04
#6200000
0!
0G
0H
1(
#6300000
1!
1G
1H
0(
0U
0W
0X
0V
1P
1I
0Q
#6400000
0!
0G
0H
1(
0T
0R
1Q
1E
1'
#6500000
1!
1G
1H
0(
1X
0P
1N
0I
1R
0Q
#6600000
0!
0G
0H
1(
#6700000
1!
1G
1H
0(
1W
0X
1I
#6800000
0!
0G
0H
1(
#6900000
1!
1G
1H
0(
1X
0N
0I
14
#7000000
0!
0G
0H
1(
#7100000
1!
1G
1H
0(
0W
0X
1V
1I
#7200000
0!
0G
0H
1(
#7300000
1!
1G
1H
0(
1X
1N
0I
#7400000
0!
0G
0H
1(
#7500000
1!
1G
1H
0(
1W
0X
1I
#7600000
0!
0G
0H
1(
#7700000
1!
1G
1H
0(
1X
1O
0N
0I
04
#7800000
0!
0G
0H
1(
#7900000
1!
1G
1H
0(
1U
0W
0X
0V
1I
#8000000
0!
0G
0H
1(
#8100000
1!
1G
1H
0(
1X
1N
0I
#8200000
0!
0G
0H
1(
#8300000
1!
1G
1H
0(
1W
0X
1I
#8400000
0!
0G
0H
1(
#8500000
1!
1G
1H
0(
1X
0N
0I
14
#8600000
0!
0G
0H
1(
#8700000
1!
1G
1H
0(
0W
0X
1V
1I
#8800000
0!
0G
0H
1(
#8900000
1!
1G
1H
0(
1X
1N
0I
#9000000
0!
0G
0H
1(
#9100000
1!
1G
1H
0(
1W
0X
1I
#9200000
0!
0G
0H
1(
#9300000
1!
1G
1H
0(
1X
0O
0N
0I
04
#9400000
0!
0G
0H
1(
#9500000
1!
1G
1H
0(
0U
0W
0X
0V
1P
1I
0R
1Q
#9600000
0!
0G
0H
1(
1T
0S
0Q
0E
1F
0'
1&
#9700000
1!
1G
1H
0(
1X
0P
1N
0I
1Q
#9800000
0!
0G
0H
1(
#9900000
1!
1G
1H
0(
1W
0X
1I
